{
  "name": "AllianceEntity",
  "fields": [
    {
      "fieldName": "name",
      "fieldType": "String"
    }
  ],
  "relationships": [],
  "changelogDate": "20190604151209",
  "entityTableName": "alliance_entity",
  "dto": "no",
  "pagination": "no",
  "service": "no",
  "jpaMetamodelFiltering": false,
  "fluentMethods": true,
  "clientRootFolder": "",
  "applications": "*",
  "readOnly": false
}
