{
  "name": "CityEntity",
  "fields": [
    {
      "fieldName": "cityName",
      "fieldType": "String"
    },
    {
      "fieldName": "cityType",
      "fieldType": "CityType",
      "fieldValues": "PLAYER,RENEGATES"
    },
    {
      "fieldName": "recruitmentModifier",
      "fieldType": "Double"
    },
    {
      "fieldName": "buildSpeedModifier",
      "fieldType": "Double"
    }
  ],
  "relationships": [
    {
      "relationshipType": "one-to-one",
      "otherEntityName": "armyEntity",
      "otherEntityRelationshipName": "city",
      "relationshipName": "army",
      "otherEntityField": "id",
      "ownerSide": true
    },
    {
      "relationshipType": "one-to-one",
      "otherEntityName": "cityBuildingsEntity",
      "otherEntityRelationshipName": "city",
      "relationshipName": "buildings",
      "otherEntityField": "id",
      "ownerSide": true
    },
    {
      "relationshipType": "one-to-one",
      "otherEntityName": "resourcesEntity",
      "otherEntityRelationshipName": "cityEntity",
      "relationshipName": "storedResources",
      "otherEntityField": "id",
      "ownerSide": true
    },
    {
      "relationshipType": "one-to-one",
      "otherEntityName": "fieldEntity",
      "otherEntityRelationshipName": "cityEntity",
      "relationshipValidateRules": "required",
      "relationshipName": "location",
      "otherEntityField": "id",
      "ownerSide": true
    },
    {
      "relationshipType": "many-to-one",
      "otherEntityName": "profileEntity",
      "otherEntityRelationshipName": "ownedCities",
      "relationshipName": "owner",
      "otherEntityField": "id"
    }
  ],
  "changelogDate": "20190604151205",
  "entityTableName": "city_entity",
  "dto": "no",
  "pagination": "no",
  "service": "no",
  "jpaMetamodelFiltering": false,
  "fluentMethods": true,
  "clientRootFolder": "",
  "applications": "*",
  "readOnly": false
}
