{
  "name": "ProfileEntity",
  "fields": [
    {
      "fieldName": "accountName",
      "fieldType": "String"
    },
    {
      "fieldName": "email",
      "fieldType": "String"
    },
    {
      "fieldName": "researchTimeModifier",
      "fieldType": "Double"
    }
  ],
  "relationships": [
    {
      "relationshipType": "one-to-one",
      "otherEntityName": "researchesEntity",
      "otherEntityRelationshipName": "profileEntity",
      "relationshipName": "researches",
      "otherEntityField": "id",
      "ownerSide": true
    },
    {
      "relationshipType": "one-to-one",
      "otherEntityName": "allianceEntity",
      "otherEntityRelationshipName": "profileEntity",
      "relationshipName": "alignment",
      "otherEntityField": "id",
      "ownerSide": true
    },
    {
      "relationshipType": "one-to-many",
      "otherEntityName": "cityEntity",
      "otherEntityRelationshipName": "owner",
      "relationshipName": "ownedCities"
    },
    {
      "relationshipType": "one-to-many",
      "otherEntityName": "landEntity",
      "otherEntityRelationshipName": "owner",
      "relationshipName": "controlledLands"
    },
    {
      "relationshipType": "one-to-many",
      "otherEntityName": "heroEntity",
      "otherEntityRelationshipName": "owner",
      "relationshipName": "heroes"
    },
    {
      "relationshipType": "one-to-many",
      "otherEntityName": "playerRelations",
      "otherEntityRelationshipName": "owner",
      "relationshipName": "relations"
    },
    {
      "relationshipType": "many-to-one",
      "otherEntityName": "user",
      "otherEntityRelationshipName": "profileEntity",
      "relationshipValidateRules": "required",
      "relationshipName": "user",
      "otherEntityField": "id"
    },
    {
      "relationshipType": "one-to-one",
      "otherEntityName": "clanEntity",
      "otherEntityRelationshipName": "members",
      "relationshipName": "clan",
      "ownerSide": false
    },
    {
      "relationshipType": "many-to-one",
      "otherEntityName": "worldEntity",
      "otherEntityRelationshipName": "participatingPlayers",
      "relationshipName": "worldEntity",
      "otherEntityField": "id"
    }
  ],
  "changelogDate": "20190604151211",
  "entityTableName": "profile_entity",
  "dto": "no",
  "pagination": "no",
  "service": "no",
  "jpaMetamodelFiltering": false,
  "fluentMethods": true,
  "clientRootFolder": "",
  "applications": "*",
  "readOnly": false
}
