{
  "name": "ResearchesEntity",
  "fields": [
    {
      "fieldName": "infantryVitality",
      "fieldType": "Integer"
    },
    {
      "fieldName": "cavalryVitality",
      "fieldType": "Integer"
    },
    {
      "fieldName": "lightArmorValue",
      "fieldType": "Integer"
    },
    {
      "fieldName": "heavyArmorValue",
      "fieldType": "Integer"
    },
    {
      "fieldName": "meleeAttack",
      "fieldType": "Integer"
    },
    {
      "fieldName": "rangedAttack",
      "fieldType": "Integer"
    },
    {
      "fieldName": "infantrySpeed",
      "fieldType": "Integer"
    },
    {
      "fieldName": "cavalrySpeed",
      "fieldType": "Integer"
    },
    {
      "fieldName": "cityBuildingSpeed",
      "fieldType": "Integer"
    },
    {
      "fieldName": "recruitmentSpeed",
      "fieldType": "Integer"
    },
    {
      "fieldName": "scouting",
      "fieldType": "Integer"
    }
  ],
  "relationships": [],
  "changelogDate": "20190604151215",
  "entityTableName": "researches_entity",
  "dto": "no",
  "pagination": "no",
  "service": "no",
  "jpaMetamodelFiltering": false,
  "fluentMethods": true,
  "clientRootFolder": "",
  "applications": "*",
  "readOnly": false
}
